<svg width="49" height="49" viewBox="0 0 49 49" fill="none" xmlns="http://www.w3.org/2000/svg">
<g clip-path="url(#clip0_203_528)">
<path fill-rule="evenodd" clip-rule="evenodd" d="M48.5529 15.7596C48.6955 15.9019 48.8086 16.0708 48.8858 16.2569C48.963 16.4429 49.0027 16.6423 49.0027 16.8438C49.0027 17.0452 48.963 17.2446 48.8858 17.4306C48.8086 17.6167 48.6955 17.7856 48.5529 17.9279L39.3654 27.1154C39.2231 27.258 39.0541 27.3711 38.8681 27.4483C38.6821 27.5255 38.4826 27.5652 38.2812 27.5652C38.0798 27.5652 37.8804 27.5255 37.6944 27.4483C37.5083 27.3711 37.3393 27.258 37.1971 27.1154L32.6034 22.5216C32.3158 22.2341 32.1543 21.8441 32.1543 21.4375C32.1543 21.0309 32.3158 20.6409 32.6034 20.3534C32.8909 20.0659 33.2809 19.9043 33.6875 19.9043C34.0941 19.9043 34.4841 20.0659 34.7716 20.3534L38.2812 23.8661L46.3846 15.7596C46.5268 15.617 46.6958 15.5039 46.8819 15.4267C47.0679 15.3495 47.2673 15.3098 47.4687 15.3098C47.6701 15.3098 47.8696 15.3495 48.0556 15.4267C48.2416 15.5039 48.4106 15.617 48.5529 15.7596Z" fill="black"/>
<path d="M3.0625 42.875C3.0625 42.875 0 42.875 0 39.8125C0 36.75 3.0625 27.5625 18.375 27.5625C33.6875 27.5625 36.75 36.75 36.75 39.8125C36.75 42.875 33.6875 42.875 33.6875 42.875H3.0625ZM18.375 24.5C20.8117 24.5 23.1486 23.532 24.8715 21.809C26.5945 20.0861 27.5625 17.7492 27.5625 15.3125C27.5625 12.8758 26.5945 10.5389 24.8715 8.81596C23.1486 7.09297 20.8117 6.125 18.375 6.125C15.9383 6.125 13.6014 7.09297 11.8785 8.81596C10.1555 10.5389 9.1875 12.8758 9.1875 15.3125C9.1875 17.7492 10.1555 20.0861 11.8785 21.809C13.6014 23.532 15.9383 24.5 18.375 24.5Z" fill="black"/>
</g>
<defs>
<clipPath id="clip0_203_528">
<rect width="49" height="49" fill="white"/>
</clipPath>
</defs>
</svg>
