<svg width="21" height="21" viewBox="0 0 21 21" fill="none" xmlns="http://www.w3.org/2000/svg">
<path d="M11.8125 15.0938H10.5V13.7812C10.4995 13.2593 10.2919 12.7588 9.92279 12.3897C9.55369 12.0206 9.05324 11.813 8.53125 11.8125H5.90625C5.38426 11.813 4.88381 12.0206 4.51471 12.3897C4.14561 12.7588 3.93802 13.2593 3.9375 13.7812V15.0938H2.625V13.7812C2.62604 12.9113 2.97208 12.0773 3.58721 11.4622C4.20233 10.8471 5.03633 10.501 5.90625 10.5H8.53125C9.40117 10.501 10.2352 10.8471 10.8503 11.4622C11.4654 12.0773 11.8115 12.9113 11.8125 13.7812V15.0938ZM7.21875 3.9375C7.60813 3.9375 7.98877 4.05297 8.31253 4.26929C8.63629 4.48562 8.88863 4.7931 9.03764 5.15284C9.18665 5.51258 9.22564 5.90843 9.14967 6.29033C9.07371 6.67223 8.8862 7.02303 8.61087 7.29837C8.33553 7.5737 7.98473 7.76121 7.60283 7.83717C7.22093 7.91314 6.82508 7.87415 6.46534 7.72514C6.1056 7.57613 5.79812 7.32379 5.58179 7.00003C5.36547 6.67627 5.25 6.29563 5.25 5.90625C5.25 5.3841 5.45742 4.88335 5.82663 4.51413C6.19585 4.14492 6.69661 3.9375 7.21875 3.9375ZM7.21875 2.625C6.56978 2.625 5.93538 2.81744 5.39579 3.17799C4.85619 3.53854 4.43562 4.051 4.18727 4.65057C3.93892 5.25014 3.87394 5.90989 4.00055 6.54639C4.12716 7.18289 4.43966 7.76755 4.89856 8.22644C5.35745 8.68534 5.94211 8.99784 6.57861 9.12445C7.21511 9.25106 7.87486 9.18608 8.47443 8.93773C9.074 8.68938 9.58646 8.26881 9.94701 7.72921C10.3076 7.18962 10.5 6.55522 10.5 5.90625C10.5 5.03601 10.1543 4.20141 9.53894 3.58606C8.92359 2.9707 8.08899 2.625 7.21875 2.625ZM1.3125 17.0625H19.6875V18.375H1.3125V17.0625ZM17.9176 5.25C17.6841 5.25002 17.453 5.29684 17.238 5.38769C17.0229 5.47854 16.8282 5.61158 16.6655 5.77894L16.4062 6.04406L16.147 5.77828C15.9842 5.61095 15.7896 5.47795 15.5745 5.38714C15.3594 5.29632 15.1284 5.24953 14.8949 5.24953C14.6615 5.24953 14.4304 5.29632 14.2153 5.38714C14.0002 5.47795 13.8056 5.61095 13.6428 5.77828C13.3108 6.12104 13.1252 6.57949 13.1252 7.05666C13.1252 7.53382 13.3108 7.99227 13.6428 8.33503L16.4062 11.1562L19.1691 8.33569C19.501 7.99293 19.6867 7.53448 19.6867 7.05731C19.6867 6.58015 19.501 6.12169 19.1691 5.77894C19.0064 5.61174 18.812 5.47879 18.5972 5.38795C18.3823 5.2971 18.1515 5.2502 17.9183 5.25H17.9176Z" fill="white"/>
</svg>
